{
    "page": 1,
    "total_results": 140,
    "total_pages": 7,
    "results": [
        {
            "vote_count": 238,
            "id": 713,
            "video": false,
            "vote_average": 7.1,
            "title": "The Piano",
            "popularity": 4.329998,
            "poster_path": "/yuGqa81ye11dDAeBZ9MResJSmoY.jpg",
            "original_language": "en",
            "original_title": "The Piano",
            "genre_ids": [
                18,
                10749
            ],
            "backdrop_path": "/dVDdABRCmQglgXod01GMHgtkS8k.jpg",
            "adult": false,
            "overview": "After a long voyage from Scotland, pianist Ada McGrath and her young daughter, Flora, are left with all their belongings, including a piano, on a New Zealand beach. Ada, who has been mute since childhood, has been sold into marriage to a local man named Alisdair Stewart. Making little attempt to warm up to Alisdair, Ada soon becomes intrigued by his Maori-friendly acquaintance, George Baines, leading to tense, life-altering conflicts.",
            "release_date": "1993-05-19"
        },
        {
            "vote_count": 157,
            "id": 220286,
            "video": false,
            "vote_average": 5.8,
            "title": "Grand Piano",
            "popularity": 1.976105,
            "poster_path": "/szqoRv1gqhbfB46Xs5bv1v2Fq9h.jpg",
            "original_language": "en",
            "original_title": "Grand Piano",
            "genre_ids": [
                53,
                9648
            ],
            "backdrop_path": "/wVDS6tI2cCwiCwnor44A6ra7xVv.jpg",
            "adult": false,
            "overview": "Moments before his comeback performance, a concert pianist who suffers from stage fright discovers a note written on his music sheet.",
            "release_date": "2013-10-11"
        },
        {
            "vote_count": 1,
            "id": 402538,
            "video": false,
            "vote_average": 5,
            "title": "Piano",
            "popularity": 1.005831,
            "poster_path": "/vqtsZCY0lQCXJZtWa3LP6RLa09E.jpg",
            "original_language": "et",
            "original_title": "Piano",
            "genre_ids": [
                18,
                35,
                16
            ],
            "backdrop_path": "/koktcdoZ9ySwP3wh0U1Nw4TQYE5.jpg",
            "adult": false,
            "overview": "Marta hauls a piano home from a used music shop. She almost succeeds. Albert tries for the thirtieth year already to tell Paula that he loves her. He almost succeeds. Paula wants to respond to Albert in the same vein. She almost succeeds. Police commissioner Kits has dreamed of parachuting all his life. He almost succeeds. Mirjam wants be become a circus artist. She almost succeeds. A honeybee tries to get out past a closed window. It almost succeeds. A film without main characters where the lives of characters that have lost their head intertwine in a dramatic and less dramatic way in an ordinary concrete panel apartment building.",
            "release_date": "2015-11-18"
        },
        {
            "vote_count": 2,
            "id": 85694,
            "video": false,
            "vote_average": 8,
            "title": "Piano Piano Kid",
            "popularity": 1.068011,
            "poster_path": "/dBLFYgfxs5lnizstQeJlPijYTZa.jpg",
            "original_language": "tr",
            "original_title": "Piano Piano Bacaksız",
            "genre_ids": [],
            "backdrop_path": null,
            "adult": false,
            "overview": "",
            "release_date": "1991-10-25"
        },
        {
            "vote_count": 7,
            "id": 3052,
            "video": false,
            "vote_average": 6.4,
            "title": "Don't Make Waves",
            "popularity": 1.844149,
            "poster_path": "/691fElRzNKXy4nNuvG3gD9rnhdz.jpg",
            "original_language": "en",
            "original_title": "Don't Make Waves",
            "genre_ids": [
                35
            ],
            "backdrop_path": "/p2iJ5ynOxizs5QzmDNg6Es25eZI.jpg",
            "adult": false,
            "overview": "New York tourist Tony Curtis falls asleep on a Southern California beach on his first night in the West and wakes up to The New Phantasmagoria--catamarans, surfers (including a dog), bodybuilders, acrobats, motorcycle chicken races, a nut fishing in the shallows . . . and Sharon Tate as a skydiver named Malibu who gives Curtis the rapture of artificial respiration when he is conked on the head by a flying surfboard.",
            "release_date": "1967-06-20"
        },
        {
            "vote_count": 2,
            "id": 143021,
            "video": false,
            "vote_average": 5,
            "title": "Piano Man",
            "popularity": 1.009968,
            "poster_path": "/AjGygyftA0ZJbUlu6NuqaO9dARk.jpg",
            "original_language": "ko",
            "original_title": "피아노 맨",
            "genre_ids": [
                53,
                27,
                9648
            ],
            "backdrop_path": null,
            "adult": false,
            "overview": "A serial killer plays a cat and mouse game with a female detective.",
            "release_date": "1996-08-08"
        },
        {
            "vote_count": 0,
            "id": 434760,
            "video": false,
            "vote_average": 0,
            "title": "The Piano",
            "popularity": 1.004652,
            "poster_path": "/huiFkGpyL9tPXbbsFtW2wutW4Rg.jpg",
            "original_language": "ko",
            "original_title": "기적의 피아노",
            "genre_ids": [
                99
            ],
            "backdrop_path": null,
            "adult": false,
            "overview": "Yoon Eun, who is known as a genius pianist who learns his mother's song and learns piano from the age of three, is a congenital blind person. It is not easy for Yoon Eun to take the first steps to become a pianist.  However, there is a strong support team around the world fearful example. When I cry, I cry to be a fool, but I believe my mother is more than anyone. My body is uncomfortable, but my father is knocking the keyboard with one hand to tell the world to Yoon Eun. And to Mrs. Hunan who plays Snow White and Seven Dwarfs.",
            "release_date": "2015-09-03"
        },
        {
            "vote_count": 0,
            "id": 306815,
            "video": false,
            "vote_average": 0,
            "title": "Piano Player",
            "popularity": 1.002225,
            "poster_path": "/4E1w9NA2eAm4EYSoHyFpCDiW6dv.jpg",
            "original_language": "lv",
            "original_title": "Tapieris",
            "genre_ids": [
                99
            ],
            "backdrop_path": null,
            "adult": false,
            "overview": "The creative documentary Piano Player is a story about the piano player and musician Oscar Strock, who was a well known tango music composer in 1920s Europe. Nobody knew him – only his music was well known. The life of Strock is like a side-show of everlasting debts, long voyages and wild and unlucky love affairs that find their best interpretation through his tango music. The piano player is a man, who barely arranges his life according to the political and economic circumstances in the world. To earn money, he plays for pubs and cinema theatres in Riga, Berlin and Paris, and for lovers, he writes the most romantic tango music.",
            "release_date": "2014-06-03"
        },
        {
            "vote_count": 0,
            "id": 420006,
            "video": false,
            "vote_average": 0,
            "title": "Piano Lesson",
            "popularity": 1.000168,
            "poster_path": null,
            "original_language": "sv",
            "original_title": "Pianolektionen",
            "genre_ids": [],
            "backdrop_path": null,
            "adult": false,
            "overview": "A young man fantasizes about his female piano teacher during a lesson.",
            "release_date": "1966-01-01"
        },
        {
            "vote_count": 2,
            "id": 112857,
            "video": false,
            "vote_average": 5.3,
            "title": "Piano Blues",
            "popularity": 1.20895,
            "poster_path": "/ghqp9KTCZZxThHcex936TPy6ce6.jpg",
            "original_language": "en",
            "original_title": "Piano Blues",
            "genre_ids": [
                10402,
                99
            ],
            "backdrop_path": "/zBYRCRXwJShIO4bSUvtbJlhteNq.jpg",
            "adult": false,
            "overview": "Director — and piano player — Clint Eastwood (Play Misty for Me, Bird, Unforgiven) explores his life-long passion for piano blues, using a treasure trove of rare historical footage in addition to interviews and performances by such living legends as Pinetop Perkins and Jay McShann, as well as Dave Brubeck and Marcia Ball.",
            "release_date": "2003-01-01"
        },
        {
            "vote_count": 2,
            "id": 237771,
            "video": false,
            "vote_average": 6.5,
            "title": "Woman Without Piano",
            "popularity": 1.067352,
            "poster_path": "/vo0wJCYgyjMbzY1xSD91JufhpgC.jpg",
            "original_language": "es",
            "original_title": "La mujer sin piano",
            "genre_ids": [
                35
            ],
            "backdrop_path": "/74wJsPOKQtujgukZNnLgVwKCOIk.jpg",
            "adult": false,
            "overview": "A quietly comic look at a Madrid housewife's attempt to escape from her mundane and tedious existence. Encountering mostly impersonal bureaucracy, she has no specific plan for what she wants to do, just the fervent hope that she will find the adventure she's so desperately seeking.",
            "release_date": "2009-09-23"
        },
        {
            "vote_count": 0,
            "id": 451093,
            "video": false,
            "vote_average": 0,
            "title": "Inside Piano",
            "popularity": 1.00471,
            "poster_path": "/rR5Sp68KMDX6ws3n7aSfs5KvOpS.jpg",
            "original_language": "it",
            "original_title": "Inside Piano",
            "genre_ids": [
                99
            ],
            "backdrop_path": null,
            "adult": false,
            "overview": "",
            "release_date": "2013-03-18"
        },
        {
            "vote_count": 6,
            "id": 82805,
            "video": false,
            "vote_average": 5.6,
            "title": "Piano 17",
            "popularity": 1.001208,
            "poster_path": "/xTrGu6V486bDG7Gz6hKxHm74bPV.jpg",
            "original_language": "it",
            "original_title": "Piano 17",
            "genre_ids": [
                28,
                35,
                80
            ],
            "backdrop_path": "/ulhUxfs6hEMXcavIYUAGaW2xEao.jpg",
            "adult": false,
            "overview": "",
            "release_date": "2006-03-16"
        },
        {
            "vote_count": 0,
            "id": 408478,
            "video": false,
            "vote_average": 0,
            "title": "Piano Mooner",
            "popularity": 1.000912,
            "poster_path": null,
            "original_language": "en",
            "original_title": "Piano Mooner",
            "genre_ids": [],
            "backdrop_path": null,
            "adult": false,
            "overview": "Harry is a workaholic piano tuner whose bride-to-be's brother threatens to kill him if he doesn't marry his sister. His latest job assignment involves a socialite and a pesky French maid hounding him constantly.",
            "release_date": "1942-12-11"
        },
        {
            "vote_count": 2,
            "id": 41440,
            "video": false,
            "vote_average": 6,
            "title": "Piano, Solo",
            "popularity": 1.000527,
            "poster_path": "/opTreuqF7fYK7E6bOoBN2kGtLy3.jpg",
            "original_language": "it",
            "original_title": "Piano, Solo",
            "genre_ids": [],
            "backdrop_path": "/8xlgij8IOYIQ25hx1sdXQaSpgLn.jpg",
            "adult": false,
            "overview": "",
            "release_date": "2007-09-21"
        },
        {
            "vote_count": 0,
            "id": 277160,
            "video": false,
            "vote_average": 0,
            "title": "The Piano",
            "popularity": 1.000429,
            "poster_path": "/jd93gdnxHg6JtuBPS07uAsMoJNh.jpg",
            "original_language": "en",
            "original_title": "The Piano",
            "genre_ids": [
                10402,
                16
            ],
            "backdrop_path": null,
            "adult": false,
            "overview": "An old man relays his life story to his grandson through a moving piece of music.",
            "release_date": "2007-06-17"
        },
        {
            "vote_count": 0,
            "id": 325403,
            "video": false,
            "vote_average": 0,
            "title": "Piano Mover",
            "popularity": 1.000291,
            "poster_path": null,
            "original_language": "en",
            "original_title": "Piano Mover",
            "genre_ids": [],
            "backdrop_path": null,
            "adult": false,
            "overview": "A piano must be delivered by Krazy in his beat up old horse wagon to a skyscraper in the middle of a city. He struggles to set up a winch and pulley, getting caught in it, ending up on a ledge, where Kitty comes out of a window to join him to do a little singing, dancing and make trouble.",
            "release_date": "1932-01-04"
        },
        {
            "vote_count": 1,
            "id": 161547,
            "video": false,
            "vote_average": 10,
            "title": "Piano Tooners",
            "popularity": 1.000216,
            "poster_path": "/9BlkBcMczLZsLOdSSn8IIDfHqyn.jpg",
            "original_language": "en",
            "original_title": "Piano Tooners",
            "genre_ids": [],
            "backdrop_path": null,
            "adult": false,
            "overview": "Tom and Jerry (the human versions, not the cat and mouse) work as piano tuners. After seeing them at work and several creative ways of tuning a piano (such as removing the offending key and cutting the key itself to a shorter length), the two attend an opera singers performance. The singer passes out when the piano plays a wrong note, and Tom and Jerry are pressed into service to re-tune the piano. After pulling the offending key from the keyboard like a bad tooth, the two give the opera audience a jazz piano performance, with the now recovered opera singer joining in.",
            "release_date": "1932-11-10"
        },
        {
            "vote_count": 0,
            "id": 414620,
            "video": false,
            "vote_average": 0,
            "title": "The Piano",
            "popularity": 1,
            "poster_path": null,
            "original_language": "ko",
            "original_title": "The Piano",
            "genre_ids": [],
            "backdrop_path": null,
            "adult": false,
            "overview": "",
            "release_date": ""
        },
        {
            "vote_count": 0,
            "id": 450104,
            "video": false,
            "vote_average": 0,
            "title": "Player Piano",
            "popularity": 1,
            "poster_path": null,
            "original_language": "en",
            "original_title": "Player Piano",
            "genre_ids": [],
            "backdrop_path": null,
            "adult": false,
            "overview": "Rarity is trying to move a grand piano into the band room for practice, so she gets the Diamond Boys to help her. At Pinkie Pie's suggestion, Rarity tries a keytar, and finds she likes it.",
            "release_date": ""
        }
    ]
}
